[
  {
    "@id": "https://purls.helmholtz-metadaten.de/vp/Nicolas-54117889-vp/pot_xxx_xxx-24451e5609b94699a2bb99668169f520-vp",
    "@type": [
      "http://www.w3.org/2004/02/skos/core#Concept"
    ],
    "http://www.w3.org/2004/02/skos/core#definition": [
      {
        "@language": "en",
        "@value": "derivativee of a field"
      }
    ],
    "http://www.w3.org/2004/02/skos/core#inScheme": [
      {
        "@id": "https://purls.helmholtz-metadaten.de/vp/Nicolas-54117889-vp"
      }
    ],
    "http://www.w3.org/2004/02/skos/core#notation": [
      {
        "@value": "9ea3c445f7a64e17a28d2bcb9bdb7131-vp"
      },
      {
        "@value": "51ddc73e5bb047b6ada7d3336f37fef4-vp"
      }
    ],
    "http://www.w3.org/2004/02/skos/core#prefLabel": [
      {
        "@language": "en",
        "@value": "Potential"
      }
    ],
    "http://www.w3.org/2004/02/skos/core#scopeNote": [
      {
        "@language": "en",
        "@value": "data"
      },
      {
        "@language": "en",
        "@value": "record"
      }
    ]
  }
]