[
  {
    "@id": "https://purls.helmholtz-metadaten.de/vp/Nicolas-54117889-vp/rel_xxx_xxx-0df1606d8cc04502b58fc1a15d75cf03-vp",
    "@type": [
      "http://www.w3.org/2004/02/skos/core#Concept"
    ],
    "http://www.w3.org/2004/02/skos/core#definition": [
      {
        "@language": "en",
        "@value": "Check related IRI"
      }
    ],
    "http://www.w3.org/2004/02/skos/core#inScheme": [
      {
        "@id": "https://purls.helmholtz-metadaten.de/vp/Nicolas-54117889-vp"
      }
    ],
    "http://www.w3.org/2004/02/skos/core#notation": [
      {
        "@value": "4239ccd7f82045129e05cb61c8d4b11e-vp"
      },
      {
        "@value": "b4b326f930e445f5b14919ccb2f6e398-vp"
      }
    ],
    "http://www.w3.org/2004/02/skos/core#prefLabel": [
      {
        "@language": "en",
        "@value": "RelatedIRI"
      }
    ],
    "http://www.w3.org/2004/02/skos/core#scopeNote": [
      {
        "@language": "en",
        "@value": "none"
      },
      {
        "@language": "en",
        "@value": "relationship_type"
      }
    ]
  }
]