[
  {
    "@id": "https://purls.helmholtz-metadaten.de/vp/Nicolas-54117889-vp/ret_xxx_xxx-5f67b29a39e14fc894543491696e35de-vp",
    "@type": [
      "http://www.w3.org/2004/02/skos/core#Concept"
    ],
    "http://www.w3.org/2004/02/skos/core#definition": [
      {
        "@language": "en",
        "@value": "Fraction of a substance retained or rejected by a membrane."
      }
    ],
    "http://www.w3.org/2004/02/skos/core#inScheme": [
      {
        "@id": "https://purls.helmholtz-metadaten.de/vp/Nicolas-54117889-vp"
      }
    ],
    "http://www.w3.org/2004/02/skos/core#notation": [
      {
        "@value": "56f0e186567940fd8d20eb6d7458528c-vp"
      },
      {
        "@value": "d7282c5213d24d9ba7223ab9fcc33a26-vp"
      }
    ],
    "http://www.w3.org/2004/02/skos/core#prefLabel": [
      {
        "@language": "en",
        "@value": "retention"
      }
    ],
    "http://www.w3.org/2004/02/skos/core#scopeNote": [
      {
        "@language": "en",
        "@value": "data"
      },
      {
        "@language": "en",
        "@value": "record"
      }
    ]
  }
]